Sales Data Analysis
…
# Cleanup large intermediate objects to free memory
rm(sales_raw, calendar_raw, prices_raw, sales_long, sales_with_calendar, final_data)
gc()

           used  (Mb) gc trigger   (Mb) limit (Mb)  max used   (Mb)
Ncells  1500742  80.2    2660138  142.1         NA   2660138  142.1
Vcells 54649367 417.0  206008805 1571.8      65536 236552781 1804.8

# Output the final tsibble
product_tsibble

# A tsibble: 1,574,399 x 48 [1D]
# Key:       id [823]
   id      d     sales_volume item_id store_id date       wm_yr_wk weekday  wday
   <chr>   <chr>        <dbl> <chr>   <chr>    <date>        <dbl> <chr>   <dbl>
 1 FOODS_… d_1              0 FOODS_… TX_3     2011-01-29    11101 Saturd…     1
 2 FOODS_… d_2              2 FOODS_… TX_3     2011-01-30    11101 Sunday      2
 3 FOODS_… d_3              1 FOODS_… TX_3     2011-01-31    11101 Monday      3
 4 FOODS_… d_4              3 FOODS_… TX_3     2011-02-01    11101 Tuesday     4
 5 FOODS_… d_5              0 FOODS_… TX_3     2011-02-02    11101 Wednes…     5
 6 FOODS_… d_6              0 FOODS_… TX_3     2011-02-03    11101 Thursd…     6
 7 FOODS_… d_7              1 FOODS_… TX_3     2011-02-04    11101 Friday      7
 8 FOODS_… d_8              0 FOODS_… TX_3     2011-02-05    11102 Saturd…     1
 9 FOODS_… d_9              2 FOODS_… TX_3     2011-02-06    11102 Sunday      2
10 FOODS_… d_10             1 FOODS_… TX_3     2011-02-07    11102 Monday      3
# ℹ 1,574,389 more rows
# ℹ 39 more variables: month <dbl>, year <dbl>, event_name_1 <chr>,
#   event_type_1 <chr>, event_name_2 <chr>, event_type_2 <chr>, snap_TX <dbl>,
#   SuperBowl <int>, ValentinesDay <int>, PresidentsDay <int>, LentStart <int>,
#   LentWeek2 <int>, StPatricksDay <int>, PurimEnd <int>, OrthodoxEaster <int>,
#   PesachEnd <int>, CincoDeMayo <int>, Mothersday <int>, MemorialDay <int>,
#   NBAFinalsStart <int>, NBAFinalsEnd <int>, Fathersday <int>, …
…
